{
    "serviceClients": [
        {
            "serviceClientName": "ServiceHost.Test.Client",
            "remoteServiceName": "WebAPI.Test.HttpCore",
            "remoteHostType": "HttpCore",
            "remoteClient": "Local-Dev",
            "enableActionLogToDB": true
            // "esLoggerName": "ESServiceClientActionAppender"
        }
        // {
        //     "serviceClientName": "ServiceHost.Test.Client_Backup",
        //     "remoteServiceName": "WebAPI.Test.RabbitMQ",
        //     "remoteHostType": "RabbitMQ",
        //     "remoteClient": "Local-Dev",
        //     "enableActionLogToDB": true
        // }
    ],
    "gRPCProtocol": {
        "remoteClients": [
            {
                // 目前發現新版本的 C# gRPC Client 套件，只要使用「非 IP address」進行對 gRPC service 連線，就會產生以下的 exception，暫時找不到解決方法。
                // Grpc.Core.RpcException: Status(StatusCode=Unavailable, Detail="DNS resolution failed")
                // https://github.com/grpc/grpc/issues/18680
                "name": "Local-Dev",
                "serverHost": "172.17.0.4",
                "serverPort": 1110
            }
        ]
    },
    "rabbitMQProtocol": {
        "defaultRemoteClient": "Local-Dev",
        "remoteClients": [
            {
                "name": "Local-Dev",
                "mbHost": "192.168.0.2",
                "mbPort": 5672,
                "mbUserId": "pony",
                "mbPassword": "Admin123",
                "mbVHost": "ZayniTest",
                "defaultExchange": "Middle.Test.Topic",
                "rpc": {
                    "exchange": "Middle.Test.Topic",
                    "routingKey": "RPC.Server.",
                    "rpcReplyQueue": "Middle.Server.RPC.Res",   // 經過測試，rpcReplyQueue 也可以填寫空字串。
                    "rcpResponseTimeout": 5
                },
                "publish": {
                    "exchange": "Middle.Test.Topic",
                    "routingKey": "Event.Client."
                },
                "listen": {
                    // 指定監聽某一個 Exchange 的事件，並且給定 runtime 動態產生 consumer 的 Queue 名稱前綴字，支援 auto-scaling。
                    "exchangeName": "Middle.Test.Topic",
                    "queueNamePrefix": "Middle.Client.ListenServer.",
                    "exchangeRoutingKey": "Event.Server."

                    // 明確指定某一個 Queue 的監聽，不支援 auto-scaling 機制。
                    // "msgQueue": "Middle.Client.ListenServer.Msg",
                    // "msgRoutingKey": "Event.Server."
                }
            }
        ]
    },
    "httpCoreProtocol": {
        "remoteClients": [
            {
                "name": "Local-Dev",
                "httpHostUrl": "http://webapi-test:5100/action",
                "httpResponseTimeout": 5
            }
        ]
    }
}
